<?xml version="1.0" encoding="UTF-8" standalone="no"?>
<svg
   xmlns:dc="http://purl.org/dc/elements/1.1/"
   xmlns:cc="http://creativecommons.org/ns#"
   xmlns:rdf="http://www.w3.org/1999/02/22-rdf-syntax-ns#"
   xmlns:svg="http://www.w3.org/2000/svg"
   xmlns="http://www.w3.org/2000/svg"
   xmlns:sodipodi="http://sodipodi.sourceforge.net/DTD/sodipodi-0.dtd"
   xmlns:inkscape="http://www.inkscape.org/namespaces/inkscape"
   version="1.1"
   id="svg850"
   width="1489.4545"
   height="1489.6033"
   viewBox="0 0 1489.4545 1489.6033"
   sodipodi:docname="icon.svg"
   inkscape:version="1.0.1 (3bc2e813f5, 2020-09-07)"
   inkscape:export-filename="/home/thomas/Programme/js/lerntools/modules/main/img/icon.png"
   inkscape:export-xdpi="11.6"
   inkscape:export-ydpi="11.6">
  <metadata
     id="metadata856">
    <rdf:RDF>
      <cc:Work
         rdf:about="">
        <dc:format>image/svg+xml</dc:format>
        <dc:type
           rdf:resource="http://purl.org/dc/dcmitype/StillImage" />
        <dc:title />
      </cc:Work>
    </rdf:RDF>
  </metadata>
  <defs
     id="defs854" />
  <sodipodi:namedview
     pagecolor="#ffffff"
     bordercolor="#666666"
     borderopacity="1"
     objecttolerance="10"
     gridtolerance="10"
     guidetolerance="10"
     inkscape:pageopacity="0"
     inkscape:pageshadow="2"
     inkscape:window-width="1920"
     inkscape:window-height="1021"
     id="namedview852"
     showgrid="false"
     inkscape:zoom="0.49278233"
     inkscape:cx="908.1509"
     inkscape:cy="733.20412"
     inkscape:window-x="0"
     inkscape:window-y="27"
     inkscape:window-maximized="1"
     inkscape:current-layer="svg850"
     inkscape:document-rotation="0"
     showguides="true"
     inkscape:guide-bbox="true">
    <sodipodi:guide
       position="1611.4233,413.40787"
       orientation="0,-1"
       id="guide877" />
    <sodipodi:guide
       position="1458.3114,1067.1273"
       orientation="0,-1"
       id="guide879" />
    <sodipodi:guide
       position="1581.2898,1156.7002"
       orientation="0,-1"
       id="guide881" />
    <sodipodi:guide
       position="414.69397,632.95173"
       orientation="1,0"
       id="guide883" />
    <sodipodi:guide
       position="236.763,766.39997"
       orientation="1,0"
       id="guide885" />
    <sodipodi:guide
       position="667.24117,261.30558"
       orientation="0,-1"
       id="guide887" />
    <sodipodi:guide
       position="1083.4311,741.41276"
       orientation="1,0"
       id="guide889" />
    <sodipodi:guide
       position="843.73722,743.44113"
       orientation="1,0"
       id="guide891" />
    <sodipodi:guide
       position="937.00749,660.21535"
       orientation="1,0"
       id="guide893" />
    <sodipodi:guide
       position="157.842,1344.6756"
       orientation="0,-1"
       id="guide895" />
    <sodipodi:guide
       position="555.31684,1026.1218"
       orientation="1,0"
       id="guide897" />
    <sodipodi:guide
       position="1226.8628,820.9272"
       orientation="1,0"
       id="guide899" />
  </sodipodi:namedview>
  <rect
     style="fill:#343a3e;fill-opacity:1;stroke:none;stroke-width:0;stroke-linecap:round;stroke-linejoin:bevel;stroke-miterlimit:4;stroke-dasharray:none;stroke-dashoffset:0"
     id="rect7-3"
     width="744.80164"
     height="744.80164"
     x="744.65283"
     y="0" />
  <rect
     style="fill:#0b9f60;fill-opacity:1;stroke:none;stroke-width:0;stroke-linecap:round;stroke-linejoin:bevel;stroke-miterlimit:4;stroke-dasharray:none;stroke-dashoffset:0"
     id="rect7-3-6"
     width="744.80164"
     height="744.80164"
     x="744.65283"
     y="744.80164" />
  <rect
     style="fill:#0260a1;fill-opacity:1;stroke:none;stroke-width:0;stroke-linecap:round;stroke-linejoin:bevel;stroke-miterlimit:4;stroke-dasharray:none;stroke-dashoffset:0"
     id="rect7-3-6-7"
     width="744.80164"
     height="744.80164"
     x="0"
     y="744.65289" />
  <rect
     style="fill:#00817f;fill-opacity:1;stroke:none;stroke-width:0;stroke-linecap:round;stroke-linejoin:bevel;stroke-miterlimit:4;stroke-dasharray:none;stroke-dashoffset:0"
     id="rect7"
     width="744.80164"
     height="744.80164"
     x="0"
     y="0" />
  <path
     style="fill:#ffffff;stroke:#000000;stroke-width:1px;stroke-linecap:butt;stroke-linejoin:miter;stroke-opacity:1"
     d="m 236.76299,144.9277 h 177.93097 v 931.2677 H 843.7372 V 422.47599 H 555.31683 v -89.5729 h 671.54597 v 89.5729 H 937.00747 v 653.71941 h 146.42363 v 152.1023 H 236.76299 Z"
     id="path901" />
</svg>
