<?xml version="1.0" encoding="UTF-8" standalone="no"?>
<svg
   xmlns:dc="http://purl.org/dc/elements/1.1/"
   xmlns:cc="http://creativecommons.org/ns#"
   xmlns:rdf="http://www.w3.org/1999/02/22-rdf-syntax-ns#"
   xmlns:svg="http://www.w3.org/2000/svg"
   xmlns="http://www.w3.org/2000/svg"
   xmlns:sodipodi="http://sodipodi.sourceforge.net/DTD/sodipodi-0.dtd"
   xmlns:inkscape="http://www.inkscape.org/namespaces/inkscape"
   height="37.795"
   width="37.795"
   version="1.1"
   id="svg6"
   sodipodi:docname="login.svg"
   inkscape:version="0.92.4 5da689c313, 2019-01-14">
  <metadata
     id="metadata12">
    <rdf:RDF>
      <cc:Work
         rdf:about="">
        <dc:format>image/svg+xml</dc:format>
        <dc:type
           rdf:resource="http://purl.org/dc/dcmitype/StillImage" />
        <dc:title />
      </cc:Work>
    </rdf:RDF>
  </metadata>
  <defs
     id="defs10" />
  <sodipodi:namedview
     pagecolor="#ffffff"
     bordercolor="#666666"
     borderopacity="1"
     objecttolerance="10"
     gridtolerance="10"
     guidetolerance="10"
     inkscape:pageopacity="0"
     inkscape:pageshadow="2"
     inkscape:window-width="3232"
     inkscape:window-height="1996"
     id="namedview8"
     showgrid="false"
     inkscape:zoom="35.3226"
     inkscape:cx="11.162966"
     inkscape:cy="14.714539"
     inkscape:window-x="0"
     inkscape:window-y="50"
     inkscape:window-maximized="0"
     inkscape:current-layer="svg6" />
  <path
     inkscape:connector-curvature="0"
     d="m 20.401318,5.7253092 c -6.355183,0 -11.6996184,4.4578468 -13.057195,10.4085828 h 3.066815 c 1.283228,-4.294284 5.284214,-7.434702 9.99038,-7.434702 5.73959,0 10.408583,4.668992 10.408583,10.408583 0,5.73959 -4.668993,10.408582 -10.408583,10.408582 -4.706166,0 -8.707152,-3.140418 -9.99038,-7.434702 H 7.344123 c 1.3575766,5.950736 6.702012,10.408583 13.057195,10.408583 7.378198,0 13.382463,-6.004265 13.382463,-13.382463 0,-7.378199 -6.004265,-13.3824638 -13.382463,-13.3824638 z m -4.460821,7.4347018 v 4.460821 H 4.0449746 v 2.973881 H 15.940497 v 4.460821 l 7.434702,-5.947761 z"
     id="path62"
     style="stroke-width:1;stroke-miterlimit:4;stroke-dasharray:none;stroke:#000000;stroke-opacity:1" />
</svg>
