<?xml version="1.0" encoding="UTF-8" standalone="no"?>
<svg
   xmlns:dc="http://purl.org/dc/elements/1.1/"
   xmlns:cc="http://creativecommons.org/ns#"
   xmlns:rdf="http://www.w3.org/1999/02/22-rdf-syntax-ns#"
   xmlns:svg="http://www.w3.org/2000/svg"
   xmlns="http://www.w3.org/2000/svg"
   xmlns:sodipodi="http://sodipodi.sourceforge.net/DTD/sodipodi-0.dtd"
   xmlns:inkscape="http://www.inkscape.org/namespaces/inkscape"
   height="37.795"
   width="37.795"
   version="1.1"
   id="svg891"
   sodipodi:docname="news.svg"
   inkscape:version="0.92.4 5da689c313, 2019-01-14">
  <metadata
     id="metadata897">
    <rdf:RDF>
      <cc:Work
         rdf:about="">
        <dc:format>image/svg+xml</dc:format>
        <dc:type
           rdf:resource="http://purl.org/dc/dcmitype/StillImage" />
        <dc:title></dc:title>
      </cc:Work>
    </rdf:RDF>
  </metadata>
  <defs
     id="defs895" />
  <sodipodi:namedview
     pagecolor="#ffffff"
     bordercolor="#666666"
     borderopacity="1"
     objecttolerance="10"
     gridtolerance="10"
     guidetolerance="10"
     inkscape:pageopacity="0"
     inkscape:pageshadow="2"
     inkscape:window-width="3840"
     inkscape:window-height="2072"
     id="namedview893"
     showgrid="false"
     inkscape:zoom="18.441594"
     inkscape:cx="39.998517"
     inkscape:cy="4.1642758"
     inkscape:window-x="0"
     inkscape:window-y="51"
     inkscape:window-maximized="1"
     inkscape:current-layer="svg891" />
  <path
     inkscape:connector-curvature="0"
     d="M 16.491659,6.0420791 7.2973729,13.99449 H 5.2122525 V 24.22806 H 7.165519 l 9.32614,8.067106 z"
     style="fill:#111111;stroke:#111111;stroke-width:2.67992568;stroke-linejoin:round"
     id="path963"
     sodipodi:nodetypes="ccccccc" />
  <path
     inkscape:connector-curvature="0"
     d="m 21.107031,13.455295 c 2.285334,3.481857 2.285334,7.988223 0,11.470079 M 24.912526,9.6497991 c 4.181609,5.6730589 4.181609,13.4080119 0,19.0810709 M 28.396429,6.1658957 c 6.11156,7.6075433 6.11156,18.4413343 0,26.0488783"
     style="fill:none;stroke:#111111;stroke-width:2.67992568;stroke-linecap:round"
     id="path965"
     sodipodi:nodetypes="cccccc" />
</svg>
