<?xml version="1.0" encoding="UTF-8" standalone="no"?>
<svg
   xmlns:dc="http://purl.org/dc/elements/1.1/"
   xmlns:cc="http://creativecommons.org/ns#"
   xmlns:rdf="http://www.w3.org/1999/02/22-rdf-syntax-ns#"
   xmlns:svg="http://www.w3.org/2000/svg"
   xmlns="http://www.w3.org/2000/svg"
   xmlns:sodipodi="http://sodipodi.sourceforge.net/DTD/sodipodi-0.dtd"
   xmlns:inkscape="http://www.inkscape.org/namespaces/inkscape"
   inkscape:version="1.0 (4035a4fb49, 2020-05-01)"
   sodipodi:docname="plus.svg"
   id="svg8"
   version="1.1"
   width="37.795"
   height="37.795">
  <metadata
     id="metadata14">
    <rdf:RDF>
      <cc:Work
         rdf:about="">
        <dc:format>image/svg+xml</dc:format>
        <dc:type
           rdf:resource="http://purl.org/dc/dcmitype/StillImage" />
        <dc:title></dc:title>
      </cc:Work>
    </rdf:RDF>
  </metadata>
  <defs
     id="defs12" />
  <sodipodi:namedview
     inkscape:document-rotation="0"
     inkscape:current-layer="svg8"
     inkscape:window-maximized="0"
     inkscape:window-y="363"
     inkscape:window-x="712"
     inkscape:cy="32.054869"
     inkscape:cx="27.62496"
     inkscape:zoom="17.6613"
     showgrid="false"
     id="namedview10"
     inkscape:window-height="1542"
     inkscape:window-width="2583"
     inkscape:pageshadow="2"
     inkscape:pageopacity="0"
     guidetolerance="10"
     gridtolerance="10"
     objecttolerance="10"
     borderopacity="1"
     bordercolor="#666666"
     pagecolor="#ffffff" />
  <path
     d="M 18.857422 3.2988281 A 15.5 15.5 0 0 0 3.5371094 18.798828 A 15.5 15.5 0 0 0 19.037109 34.298828 A 15.5 15.5 0 0 0 34.537109 18.798828 A 15.5 15.5 0 0 0 19.037109 3.2988281 A 15.5 15.5 0 0 0 18.857422 3.2988281 z M 19.167969 9.8359375 A 1.5 1.5 0 0 1 20.667969 11.335938 L 20.667969 17.212891 L 26.544922 17.212891 A 1.5 1.5 0 0 1 28.044922 18.712891 A 1.5 1.5 0 0 1 26.544922 20.212891 L 20.667969 20.212891 L 20.667969 26.089844 A 1.5 1.5 0 0 1 19.167969 27.589844 A 1.5 1.5 0 0 1 17.667969 26.089844 L 17.667969 20.212891 L 11.792969 20.212891 A 1.5 1.5 0 0 1 10.292969 18.712891 A 1.5 1.5 0 0 1 11.792969 17.212891 L 17.667969 17.212891 L 17.667969 11.335938 A 1.5 1.5 0 0 1 19.167969 9.8359375 z "
     style="fill:#000000"
     id="circle2" />
</svg>
