<?xml version="1.0" encoding="UTF-8" standalone="no"?>
<svg
   xmlns:dc="http://purl.org/dc/elements/1.1/"
   xmlns:cc="http://creativecommons.org/ns#"
   xmlns:rdf="http://www.w3.org/1999/02/22-rdf-syntax-ns#"
   xmlns:svg="http://www.w3.org/2000/svg"
   xmlns="http://www.w3.org/2000/svg"
   xmlns:sodipodi="http://sodipodi.sourceforge.net/DTD/sodipodi-0.dtd"
   xmlns:inkscape="http://www.inkscape.org/namespaces/inkscape"
   width="16"
   height="16"
   version="1.1"
   id="svg4"
   sodipodi:docname="type-calc.svg"
   inkscape:version="1.0.1 (3bc2e813f5, 2020-09-07)">
  <metadata
     id="metadata10">
    <rdf:RDF>
      <cc:Work
         rdf:about="">
        <dc:format>image/svg+xml</dc:format>
        <dc:type
           rdf:resource="http://purl.org/dc/dcmitype/StillImage" />
      </cc:Work>
    </rdf:RDF>
  </metadata>
  <defs
     id="defs8" />
  <sodipodi:namedview
     pagecolor="#ffffff"
     bordercolor="#666666"
     borderopacity="1"
     objecttolerance="10"
     gridtolerance="10"
     guidetolerance="10"
     inkscape:pageopacity="0"
     inkscape:pageshadow="2"
     inkscape:window-width="1451"
     inkscape:window-height="830"
     id="namedview6"
     showgrid="false"
     inkscape:zoom="29.5625"
     inkscape:cx="8"
     inkscape:cy="8"
     inkscape:window-x="0"
     inkscape:window-y="27"
     inkscape:window-maximized="0"
     inkscape:current-layer="svg4" />
  <path
     color="#000000"
     d="M 1.3333333,0 C 0.59466666,0 0,0.59466666 0,1.3333333 V 14.666667 C 0,15.405333 0.59466666,16 1.3333333,16 H 14.666667 C 15.405333,16 16,15.405333 16,14.666667 V 1.3333333 C 16,0.59466666 15.405333,0 14.666667,0 Z m 0,1.3333333 H 14.666667 V 14.666667 H 1.3333333 Z M 2.6666666,2.6666666 V 4 H 5.3333333 V 2.6666666 Z m 4,0 V 4 H 9.3333332 V 2.6666666 Z m 4.0000004,0 V 4 h 2.666666 V 2.6666666 Z m -8.0000004,2.664 V 6.664 H 5.3333333 V 5.3306666 Z m 4,0 V 6.664 H 9.3333332 V 5.3306666 Z m 4.0000004,0 V 6.664 h 2.666666 V 5.3306666 Z M 2.6666666,7.9946665 V 9.3279999 H 5.3333333 V 7.9946665 Z m 4,0 V 9.3279999 H 9.3333332 V 7.9946665 Z m 4.0000004,0 v 1.3333334 h 2.666666 V 7.9946665 Z M 2.6666666,10.658667 v 1.333332 h 2.6666667 v -1.333332 z m 4,0 v 1.333332 h 2.6666666 v -1.333332 z m 4.0000004,0 v 1.333332 h 2.666666 v -1.333332 z"
     id="path2"
     style="stroke-width:1.33332" />
</svg>
