<?xml version="1.0" encoding="UTF-8" standalone="no"?>
<svg
   xmlns:dc="http://purl.org/dc/elements/1.1/"
   xmlns:cc="http://creativecommons.org/ns#"
   xmlns:rdf="http://www.w3.org/1999/02/22-rdf-syntax-ns#"
   xmlns:svg="http://www.w3.org/2000/svg"
   xmlns="http://www.w3.org/2000/svg"
   xmlns:sodipodi="http://sodipodi.sourceforge.net/DTD/sodipodi-0.dtd"
   xmlns:inkscape="http://www.inkscape.org/namespaces/inkscape"
   width="16"
   height="16"
   version="1.1"
   id="svg4"
   sodipodi:docname="type-link.svg"
   inkscape:version="1.0.1 (3bc2e813f5, 2020-09-07)">
  <metadata
     id="metadata10">
    <rdf:RDF>
      <cc:Work
         rdf:about="">
        <dc:format>image/svg+xml</dc:format>
        <dc:type
           rdf:resource="http://purl.org/dc/dcmitype/StillImage" />
        <dc:title />
      </cc:Work>
    </rdf:RDF>
  </metadata>
  <defs
     id="defs8" />
  <sodipodi:namedview
     pagecolor="#ffffff"
     bordercolor="#666666"
     borderopacity="1"
     objecttolerance="10"
     gridtolerance="10"
     guidetolerance="10"
     inkscape:pageopacity="0"
     inkscape:pageshadow="2"
     inkscape:window-width="1283"
     inkscape:window-height="825"
     id="namedview6"
     showgrid="false"
     inkscape:zoom="2.6129805"
     inkscape:cx="-91.506446"
     inkscape:cy="54.276115"
     inkscape:window-x="0"
     inkscape:window-y="27"
     inkscape:window-maximized="0"
     inkscape:current-layer="svg4"
     inkscape:document-rotation="0" />
  <path
     style="fill:#000000;stroke-width:0.0343496"
     d="M 3.6428062,15.950209 C 2.2899962,15.723306 1.0871303,14.830556 0.46267193,13.589958 0.13955365,12.948026 0,12.349893 0,11.606928 0,10.691976 0.23055176,9.9316652 0.74440824,9.1520286 0.9411279,8.8535601 1.1607962,8.6176151 2.3488282,7.4287284 3.4729404,6.3038073 3.7819797,6.013833 4.0343348,5.8472028 4.6131056,5.4650406 5.1839636,5.2343504 5.8170211,5.1267988 6.309256,5.0431722 7.099864,5.0732378 7.5708155,5.1934929 c 0.868185,0.2216868 1.5761177,0.6380112 2.1758667,1.2795941 0.2991398,0.3200053 0.4507428,0.5768707 0.4507428,0.7637055 0,0.4239114 -0.3388986,0.7618522 -0.7640114,0.7618522 -0.192536,0 -0.442055,-0.1617019 -0.6763901,-0.4383376 C 8.3791595,7.1142343 7.8426613,6.777156 7.2599492,6.6197057 6.8367969,6.5053691 6.1658695,6.5134342 5.7537827,6.6378117 5.4073185,6.7423825 5.035371,6.9196069 4.8069391,7.0889612 4.7219211,7.1519917 4.0557809,7.8038514 3.3266276,8.5375387 1.9483828,9.9243541 1.8637518,10.024893 1.6673106,10.508758 1.5087155,10.899403 1.4632309,11.149855 1.4647512,11.62411 c 0.00174,0.541635 0.073413,0.849544 0.3039832,1.305855 0.1946764,0.385276 0.4260313,0.677902 0.7469164,0.944729 0.9771997,0.812574 2.4041882,0.888619 3.4828374,0.185604 0.1094153,-0.07131 0.5465762,-0.472913 0.9714689,-0.892448 0.4248927,-0.419534 0.8211248,-0.787286 0.880516,-0.817226 0.3673274,-0.18518 0.7951475,-0.03533 0.9868848,0.345674 0.076771,0.152551 0.071679,0.462377 -0.010216,0.621638 -0.036059,0.07012 -0.4339135,0.491908 -0.8841202,0.937297 -0.8354252,0.826485 -1.1086496,1.04609 -1.6195372,1.301712 -0.3193469,0.159784 -0.8700872,0.335156 -1.2419395,0.39547 -0.396456,0.0643 -1.0481552,0.06331 -1.4387388,-0.0022 z M 8.8927039,10.897091 C 7.8493648,10.736824 6.949155,10.268576 6.2533178,9.5242024 5.9541782,9.2041972 5.8025751,8.9473318 5.8025751,8.7604969 c 0,-0.4239114 0.3388985,-0.7618522 0.7640113,-0.7618522 0.1913576,0 0.4421082,0.1617573 0.6725212,0.4338383 0.3746912,0.4424508 0.9264323,0.7898666 1.5009432,0.9451008 0.4209645,0.1137454 1.0943142,0.1062193 1.5016082,-0.016784 0.353236,-0.1066774 0.722147,-0.2856705 0.966499,-0.4689397 0.0956,-0.071701 0.762666,-0.7234024 1.482372,-1.4482257 1.359706,-1.3693737 1.446142,-1.4722815 1.642159,-1.9551032 0.158595,-0.390644 0.20408,-0.6410963 0.20256,-1.1153519 -0.0017,-0.5416342 -0.07341,-0.8495434 -0.303983,-1.3058546 -0.507728,-1.0048216 -1.4884,-1.6090403 -2.608948,-1.6074434 -0.445907,6.358e-4 -0.778132,0.0657 -1.144117,0.2240682 C 10.038675,1.8741397 9.8351327,2.0351035 9.0300429,2.8291684 8.6051502,3.2482427 8.2089181,3.6158677 8.1495269,3.6461127 7.8540436,3.7965887 7.5501809,3.7443965 7.3096405,3.5018518 7.1002259,3.2906919 7.0413844,3.0733523 7.1201823,2.8020613 7.1698973,2.6308998 7.2287664,2.5640727 8.0244477,1.7755542 8.9316398,0.87652952 9.1937796,0.66919517 9.7548855,0.40689911 10.339962,0.13339812 10.785895,0.02831667 11.467811,0.00325903 12.670557,-0.04093762 13.757281,0.36501141 14.626106,1.1830501 15.51804,2.0228464 16,3.1479674 16,4.3903616 c 0,0.9131338 -0.233803,1.6824734 -0.746394,2.4560439 -0.190714,0.2878128 -0.426939,0.5450233 -1.431985,1.5591941 -0.661977,0.6679877 -1.3272,1.3194326 -1.478273,1.4476556 -0.651326,0.5528118 -1.357817,0.8852238 -2.157198,1.0149858 -0.2839735,0.0461 -1.067408,0.06357 -1.2934461,0.02885 z"
     id="path21" />
</svg>
