<?xml version="1.0" encoding="UTF-8" standalone="no"?>
<svg
   xmlns:dc="http://purl.org/dc/elements/1.1/"
   xmlns:cc="http://creativecommons.org/ns#"
   xmlns:rdf="http://www.w3.org/1999/02/22-rdf-syntax-ns#"
   xmlns:svg="http://www.w3.org/2000/svg"
   xmlns="http://www.w3.org/2000/svg"
   xmlns:sodipodi="http://sodipodi.sourceforge.net/DTD/sodipodi-0.dtd"
   xmlns:inkscape="http://www.inkscape.org/namespaces/inkscape"
   width="16"
   height="16"
   version="1.1"
   id="svg6"
   sodipodi:docname="type-unknown.svg"
   inkscape:version="1.0.1 (3bc2e813f5, 2020-09-07)">
  <metadata
     id="metadata12">
    <rdf:RDF>
      <cc:Work
         rdf:about="">
        <dc:format>image/svg+xml</dc:format>
        <dc:type
           rdf:resource="http://purl.org/dc/dcmitype/StillImage" />
      </cc:Work>
    </rdf:RDF>
  </metadata>
  <defs
     id="defs10" />
  <sodipodi:namedview
     pagecolor="#ffffff"
     bordercolor="#666666"
     borderopacity="1"
     objecttolerance="10"
     gridtolerance="10"
     guidetolerance="10"
     inkscape:pageopacity="0"
     inkscape:pageshadow="2"
     inkscape:window-width="1089"
     inkscape:window-height="841"
     id="namedview8"
     showgrid="false"
     inkscape:zoom="29.5625"
     inkscape:cx="8"
     inkscape:cy="8"
     inkscape:window-x="0"
     inkscape:window-y="27"
     inkscape:window-maximized="0"
     inkscape:current-layer="svg6" />
  <path
     d="M 0,0 V 16 H 16 V 0 Z M 1.3333333,1.5243372 H 14.666667 V 14.666667 C 9.932,14.617333 6.0666667,14.564 1.3333333,14.666667 Z"
     id="path2"
     style="stroke-width:1.33333"
     sodipodi:nodetypes="cccccccccc" />
  <path
     d="m 8.167572,3.6136745 c -0.8127765,0 -1.5700035,0.2508526 -2.1050326,0.7230457 C 5.5289721,4.8089133 5.2439156,5.4788373 5.2439156,6.1959806 h 1.6708696 c 0,-0.3895593 0.1330264,-0.6418875 0.3289113,-0.8160087 C 7.4410433,5.2058506 7.7260998,5.089278 8.167572,5.089278 c 0.4414721,0 0.7265285,0.1180482 0.9238754,0.2906939 0.1973467,0.1741212 0.3289113,0.4264494 0.3289113,0.8160087 0,0.3379132 -0.076015,0.4825223 -0.1768812,0.6094242 C 8.8078526,7.1934885 8.2815945,7.5254993 7.8576643,7.842754 7.3796466,8.1600088 6.9133234,8.5746534 6.9133234,9.1471875 V 9.5160887 H 8.584193 V 9.1471875 C 9.1776952,8.6100679 10.062101,8.1423016 10.61321,7.64945 10.904114,7.2805491 11.089766,6.7788439 11.089766,6.1959806 11.089766,5.4788373 10.80471,4.8089133 10.271142,4.3367202 9.7375751,3.8645271 8.9788866,3.6136745 8.1661101,3.6136745 M 6.9133234,10.991692 v 1.475604 H 8.584193 v -1.475604 z"
     id="path4"
     style="stroke-width:1.4687" />
</svg>
